EDS_214_Project_Analysis
…
#selecting the nutrients we want by group by
nutrients <- bisley_all %>% 
  group_by(sample_id) %>%
  mutate(across(
    c(k, no3_n, mg, ca, nh4_n))) %>% 
  select(sample_id,sample_date,k, no3_n,mg, ca, nh4_n)

#verifying the new table
#add this to outputs
nutrients

# A tibble: 7,177 × 7
# Groups:   sample_id [4]
   sample_id sample_date     k no3_n    mg    ca nh4_n
   <chr>     <date>      <dbl> <dbl> <dbl> <dbl> <dbl>
 1 MPR       1989-05-16   0.77    69  1.92  6.15    NA
 2 MPR       1989-05-23   0.72    69  2.41  7.17    NA
 3 MPR       1989-05-30   0.7     79  1.6   5.19    NA
 4 MPR       1989-06-06   0.59    85  1.69  6.6     NA
 5 MPR       1989-06-13   0.65    70  2.06  6.66    NA
 6 MPR       1989-06-20   0.66    71  1.98  7.64    NA
 7 MPR       1989-06-27   0.7     NA  3.31  7.83    NA
 8 MPR       1989-07-05   0.62    10  0.82  3.17    NA
 9 MPR       1989-07-11   0.76    24  1.85  7.94    NA
10 MPR       1989-07-26   0.69    10  1.5   6.95    NA
# ℹ 7,167 more rows
…
    Sample_Date = nutrients$sample_date,
    
    conc = nutrients[[nutr]],
    
    wind_size_weeks = 9
  )
}

#The updated nutrients table that includes the rolling mean based on if values were provided

#will need to add this to the outputs folder <<<<<<<<<<<<----------------------------------
nutrients

# A tibble: 7,177 × 12
# Groups:   sample_id [4]
   sample_id sample_date     k no3_n    mg    ca nh4_n ca_rollmean9 k_rollmean9
   <chr>     <date>      <dbl> <dbl> <dbl> <dbl> <dbl>        <dbl>       <dbl>
 1 MPR       1989-05-16   0.77    69  1.92  6.15    NA         4.79       0.845
 2 MPR       1989-05-23   0.72    69  2.41  7.17    NA         4.89       0.841
 3 MPR       1989-05-30   0.7     79  1.6   5.19    NA         4.96       0.831
 4 MPR       1989-06-06   0.59    85  1.69  6.6     NA         4.71       0.823
 5 MPR       1989-06-13   0.65    70  2.06  6.66    NA         4.82       0.828
 6 MPR       1989-06-20   0.66    71  1.98  7.64    NA         4.81       0.836
 7 MPR       1989-06-27   0.7     NA  3.31  7.83    NA         4.80       0.846
 8 MPR       1989-07-05   0.62    10  0.82  3.17    NA         4.85       0.850
 9 MPR       1989-07-11   0.76    24  1.85  7.94    NA         4.88       0.848
10 MPR       1989-07-26   0.69    10  1.5   6.95    NA         4.60       0.867
# ℹ 7,167 more rows
# ℹ 3 more variables: mg_rollmean9 <dbl>, no3_n_rollmean9 <dbl>,
#   nh4_n_rollmean9 <dbl>
…
nutrients_long <- nutrients_long %>%
  dplyr::filter(lubridate::year(sample_date) >= "1986-05-20",
                lubridate::year(sample_date)<= "1994-12-31")

#
nutrients_long

# A tibble: 7,104 × 4
# Groups:   nutrient, sample_id, sample_date [6,708]
   sample_id sample_date nutrient        value
   <chr>     <date>      <chr>           <dbl>
 1 MPR       1989-05-16  K mg I^-1       0.845
 2 MPR       1989-05-16  NO3-N ug I^-1 143.   
 3 MPR       1989-05-16  Mg mg I-1       2.69 
 4 MPR       1989-05-16  Ca mg I^-1      4.79 
 5 MPR       1989-05-23  K mg I^-1       0.841
 6 MPR       1989-05-23  NO3-N ug I^-1 139.   
 7 MPR       1989-05-23  Mg mg I-1       2.69 
 8 MPR       1989-05-23  Ca mg I^-1      4.89 
 9 MPR       1989-05-30  K mg I^-1       0.831
10 MPR       1989-05-30  NO3-N ug I^-1 132.   
# ℹ 7,094 more rows
…
